(kicad_sch (version 20230121) (generator eeschema)

  (uuid 55bea2ff-21ac-4276-9a5c-edbc15f06e97)

  (paper "A4")

  (lib_symbols
    (symbol "fab:Amplifier_Mono_LM4871M" (in_bom yes) (on_board yes)
      (property "Reference" "U" (at 1.27 11.43 0)
        (effects (font (size 1.27 1.27)) (justify left))
      )
      (property "Value" "Amplifier_Mono_LM4871M" (at 1.27 8.89 0)
        (effects (font (size 1.27 1.27)) (justify left))
      )
      (property "Footprint" "fab:SOIC-8_3.9x4.9mm_P1.27mm" (at 0 0 0)
        (effects (font (size 1.27 1.27)) hide)
      )
      (property "Datasheet" "https://www.ti.com/general/docs/suppproductinfo.tsp?distId=10&gotoUrl=https%3A%2F%2Fwww.ti.com%2Flit%2Fgpn%2Flm4871" (at 0 0 0)
        (effects (font (size 1.27 1.27)) hide)
      )
      (property "ki_keywords" "amp mono LM4871M" (at 0 0 0)
        (effects (font (size 1.27 1.27)) hide)
      )
      (property "ki_description" "Amplifier, IC, 1-Channel, Mono, Class AB, SOIC-8" (at 0 0 0)
        (effects (font (size 1.27 1.27)) hide)
      )
      (property "ki_fp_filters" "*SOIC*8*" (at 0 0 0)
        (effects (font (size 1.27 1.27)) hide)
      )
      (symbol "Amplifier_Mono_LM4871M_0_1"
        (rectangle (start -7.62 7.62) (end 7.62 -7.62)
          (stroke (width 0.254) (type default))
          (fill (type background))
        )
      )
      (symbol "Amplifier_Mono_LM4871M_1_1"
        (pin input line (at -10.16 5.08 0) (length 2.54)
          (name "SHDN" (effects (font (size 1.27 1.27))))
          (number "1" (effects (font (size 1.27 1.27))))
        )
        (pin passive line (at -10.16 2.54 0) (length 2.54)
          (name "BYPASS" (effects (font (size 1.27 1.27))))
          (number "2" (effects (font (size 1.27 1.27))))
        )
        (pin input line (at -10.16 -2.54 0) (length 2.54)
          (name "+IN" (effects (font (size 1.27 1.27))))
          (number "3" (effects (font (size 1.27 1.27))))
        )
        (pin input line (at -10.16 -5.08 0) (length 2.54)
          (name "-IN" (effects (font (size 1.27 1.27))))
          (number "4" (effects (font (size 1.27 1.27))))
        )
        (pin output line (at 10.16 2.54 180) (length 2.54)
          (name "VOUT1" (effects (font (size 1.27 1.27))))
          (number "5" (effects (font (size 1.27 1.27))))
        )
        (pin power_in line (at 0 10.16 270) (length 2.54)
          (name "VDD" (effects (font (size 1.27 1.27))))
          (number "6" (effects (font (size 1.27 1.27))))
        )
        (pin power_in line (at 0 -10.16 90) (length 2.54)
          (name "GND" (effects (font (size 1.27 1.27))))
          (number "7" (effects (font (size 1.27 1.27))))
        )
        (pin output line (at 10.16 0 180) (length 2.54)
          (name "VOUT2" (effects (font (size 1.27 1.27))))
          (number "8" (effects (font (size 1.27 1.27))))
        )
      )
    )
    (symbol "fab:C_1206" (pin_numbers hide) (in_bom yes) (on_board yes)
      (property "Reference" "C" (at 0.635 2.54 0)
        (effects (font (size 1.27 1.27)) (justify left))
      )
      (property "Value" "C_1206" (at 0.635 -2.54 0)
        (effects (font (size 1.27 1.27)) (justify left))
      )
      (property "Footprint" "fab:C_1206" (at 0 0 0)
        (effects (font (size 1.27 1.27)) hide)
      )
      (property "Datasheet" "https://www.yageo.com/upload/media/product/productsearch/datasheet/mlcc/UPY-GP_NP0_16V-to-50V_18.pdf" (at 0 0 0)
        (effects (font (size 1.27 1.27)) hide)
      )
      (property "ki_keywords" "cap capacitor unpolarized 1206 C GRT31CC8YA106ME01L C3216X7R1H105K160AB C3216X7R2A104K160AA CC1206CRNPO9BN1R0 CC1206JRNPO9BN100 CC1206JRNPO9BN101 CC1206KKX7RCBB102 CC1206KRX7R9BB103" (at 0 0 0)
        (effects (font (size 1.27 1.27)) hide)
      )
      (property "ki_description" "Unpolarized capacitor, SMD, 1206" (at 0 0 0)
        (effects (font (size 1.27 1.27)) hide)
      )
      (property "ki_fp_filters" "*C*" (at 0 0 0)
        (effects (font (size 1.27 1.27)) hide)
      )
      (symbol "C_1206_0_1"
        (polyline
          (pts
            (xy -2.032 -0.762)
            (xy 2.032 -0.762)
          )
          (stroke (width 0.508) (type default))
          (fill (type none))
        )
        (polyline
          (pts
            (xy -2.032 0.762)
            (xy 2.032 0.762)
          )
          (stroke (width 0.508) (type default))
          (fill (type none))
        )
        (polyline
          (pts
            (xy 0 -0.635)
            (xy 0 -2.54)
          )
          (stroke (width 0) (type default))
          (fill (type none))
        )
        (polyline
          (pts
            (xy 0 0.635)
            (xy 0 2.54)
          )
          (stroke (width 0) (type default))
          (fill (type none))
        )
      )
      (symbol "C_1206_1_1"
        (pin passive line (at 0 5.08 270) (length 2.54)
          (name "~" (effects (font (size 1.27 1.27))))
          (number "1" (effects (font (size 1.27 1.27))))
        )
        (pin passive line (at 0 -5.08 90) (length 2.54)
          (name "~" (effects (font (size 1.27 1.27))))
          (number "2" (effects (font (size 1.27 1.27))))
        )
      )
    )
    (symbol "fab:DAC_12bit_I2C_MCP4725_SOT-23-6" (in_bom yes) (on_board yes)
      (property "Reference" "U" (at -7.62 6.35 0)
        (effects (font (size 1.27 1.27)) (justify left))
      )
      (property "Value" "DAC_12bit_I2C_MCP4725_SOT-23-6" (at 1.27 6.35 0)
        (effects (font (size 1.27 1.27)) (justify left))
      )
      (property "Footprint" "fab:SOT-23-6" (at 0 0 0)
        (effects (font (size 1.27 1.27)) hide)
      )
      (property "Datasheet" "www.adafruit.com/datasheets/mcp4725.pdf" (at 0 0 0)
        (effects (font (size 1.27 1.27)) hide)
      )
      (property "ki_keywords" "dac i2c" (at 0 0 0)
        (effects (font (size 1.27 1.27)) hide)
      )
      (property "ki_description" "12 Bit Digital to Analog Converter I2C interface SOT-23-6" (at 0 0 0)
        (effects (font (size 1.27 1.27)) hide)
      )
      (property "ki_fp_filters" "SOT?23*" (at 0 0 0)
        (effects (font (size 1.27 1.27)) hide)
      )
      (symbol "DAC_12bit_I2C_MCP4725_SOT-23-6_0_1"
        (rectangle (start -7.62 5.08) (end 7.62 -5.08)
          (stroke (width 0.254) (type default))
          (fill (type background))
        )
      )
      (symbol "DAC_12bit_I2C_MCP4725_SOT-23-6_1_1"
        (pin power_out line (at 10.16 2.54 180) (length 2.54)
          (name "VOUT" (effects (font (size 1.27 1.27))))
          (number "1" (effects (font (size 1.27 1.27))))
        )
        (pin power_in line (at 0 -7.62 90) (length 2.54)
          (name "VSS" (effects (font (size 1.27 1.27))))
          (number "2" (effects (font (size 1.27 1.27))))
        )
        (pin power_in line (at 0 7.62 270) (length 2.54)
          (name "VDD" (effects (font (size 1.27 1.27))))
          (number "3" (effects (font (size 1.27 1.27))))
        )
        (pin bidirectional line (at -10.16 -2.54 0) (length 2.54)
          (name "SDA" (effects (font (size 1.27 1.27))))
          (number "4" (effects (font (size 1.27 1.27))))
        )
        (pin input line (at -10.16 2.54 0) (length 2.54)
          (name "SCL" (effects (font (size 1.27 1.27))))
          (number "5" (effects (font (size 1.27 1.27))))
        )
        (pin input line (at -10.16 0 0) (length 2.54)
          (name "A0" (effects (font (size 1.27 1.27))))
          (number "6" (effects (font (size 1.27 1.27))))
        )
      )
    )
    (symbol "fab:Module_XIAO-RP2040_SocketSMD" (in_bom yes) (on_board yes)
      (property "Reference" "M" (at -10.16 16.51 0)
        (effects (font (size 1.27 1.27)) (justify left))
      )
      (property "Value" "Module_XIAO-RP2040_SocketSMD" (at 1.27 16.51 0)
        (effects (font (size 1.27 1.27)) (justify left))
      )
      (property "Footprint" "fab:SeeedStudio_XIAO_SocketSMD" (at 0 0 0)
        (effects (font (size 1.27 1.27)) hide)
      )
      (property "Datasheet" "https://wiki.seeedstudio.com/XIAO-RP2040/" (at 0 0 0)
        (effects (font (size 1.27 1.27)) hide)
      )
      (property "ki_keywords" "XIAO RP2040 socket female header" (at 0 0 0)
        (effects (font (size 1.27 1.27)) hide)
      )
      (property "ki_description" "RP2040 XIAO RP2040 - ARM® Cortex®-M0+ MCU 32-Bit Embedded Evaluation Board SMD Socket (Female Header)" (at 0 0 0)
        (effects (font (size 1.27 1.27)) hide)
      )
      (property "ki_fp_filters" "*SeeedStudio?XIAO?SocketSMD*" (at 0 0 0)
        (effects (font (size 1.27 1.27)) hide)
      )
      (symbol "Module_XIAO-RP2040_SocketSMD_1_1"
        (rectangle (start -10.16 15.24) (end 10.16 -15.24)
          (stroke (width 0.254) (type default))
          (fill (type background))
        )
        (pin bidirectional line (at -12.7 12.7 0) (length 2.54)
          (name "D0" (effects (font (size 1.27 1.27))))
          (number "1" (effects (font (size 1.27 1.27))))
        )
        (pin bidirectional line (at -12.7 -10.16 0) (length 2.54)
          (name "D9" (effects (font (size 1.27 1.27))))
          (number "10" (effects (font (size 1.27 1.27))))
        )
        (pin bidirectional line (at -12.7 -12.7 0) (length 2.54)
          (name "D10" (effects (font (size 1.27 1.27))))
          (number "11" (effects (font (size 1.27 1.27))))
        )
        (pin power_in line (at -2.54 17.78 270) (length 2.54)
          (name "3V3" (effects (font (size 1.27 1.27))))
          (number "12" (effects (font (size 1.27 1.27))))
        )
        (pin power_in line (at 0 -17.78 90) (length 2.54)
          (name "GND" (effects (font (size 1.27 1.27))))
          (number "13" (effects (font (size 1.27 1.27))))
        )
        (pin power_in line (at 0 17.78 270) (length 2.54)
          (name "5V" (effects (font (size 1.27 1.27))))
          (number "14" (effects (font (size 1.27 1.27))))
        )
        (pin bidirectional line (at -12.7 10.16 0) (length 2.54)
          (name "D1" (effects (font (size 1.27 1.27))))
          (number "2" (effects (font (size 1.27 1.27))))
        )
        (pin bidirectional line (at -12.7 7.62 0) (length 2.54)
          (name "D2" (effects (font (size 1.27 1.27))))
          (number "3" (effects (font (size 1.27 1.27))))
        )
        (pin bidirectional line (at -12.7 5.08 0) (length 2.54)
          (name "D3" (effects (font (size 1.27 1.27))))
          (number "4" (effects (font (size 1.27 1.27))))
        )
        (pin bidirectional line (at -12.7 2.54 0) (length 2.54)
          (name "D4" (effects (font (size 1.27 1.27))))
          (number "5" (effects (font (size 1.27 1.27))))
        )
        (pin bidirectional line (at -12.7 0 0) (length 2.54)
          (name "D5" (effects (font (size 1.27 1.27))))
          (number "6" (effects (font (size 1.27 1.27))))
        )
        (pin bidirectional line (at -12.7 -2.54 0) (length 2.54)
          (name "D6" (effects (font (size 1.27 1.27))))
          (number "7" (effects (font (size 1.27 1.27))))
        )
        (pin bidirectional line (at -12.7 -5.08 0) (length 2.54)
          (name "D7" (effects (font (size 1.27 1.27))))
          (number "8" (effects (font (size 1.27 1.27))))
        )
        (pin bidirectional line (at -12.7 -7.62 0) (length 2.54)
          (name "D8" (effects (font (size 1.27 1.27))))
          (number "9" (effects (font (size 1.27 1.27))))
        )
      )
    )
    (symbol "fab:PWR_3V3" (power) (pin_names (offset 0)) (in_bom yes) (on_board yes)
      (property "Reference" "#PWR" (at 0 -3.81 0)
        (effects (font (size 1.27 1.27)) hide)
      )
      (property "Value" "PWR_3V3" (at 0 3.556 0)
        (effects (font (size 1.27 1.27)))
      )
      (property "Footprint" "" (at 0 0 0)
        (effects (font (size 1.27 1.27)) hide)
      )
      (property "Datasheet" "" (at 0 0 0)
        (effects (font (size 1.27 1.27)) hide)
      )
      (property "ki_keywords" "power-flag" (at 0 0 0)
        (effects (font (size 1.27 1.27)) hide)
      )
      (property "ki_description" "Power symbol creates a global label with name \"+3V3\"" (at 0 0 0)
        (effects (font (size 1.27 1.27)) hide)
      )
      (symbol "PWR_3V3_0_1"
        (polyline
          (pts
            (xy -0.762 1.27)
            (xy 0 2.54)
          )
          (stroke (width 0) (type default))
          (fill (type none))
        )
        (polyline
          (pts
            (xy 0 0)
            (xy 0 2.54)
          )
          (stroke (width 0) (type default))
          (fill (type none))
        )
        (polyline
          (pts
            (xy 0 2.54)
            (xy 0.762 1.27)
          )
          (stroke (width 0) (type default))
          (fill (type none))
        )
      )
      (symbol "PWR_3V3_1_1"
        (pin power_in line (at 0 0 90) (length 0) hide
          (name "PWR_3V3" (effects (font (size 1.27 1.27))))
          (number "1" (effects (font (size 1.27 1.27))))
        )
      )
    )
    (symbol "fab:PWR_5V" (power) (pin_names (offset 0)) (in_bom yes) (on_board yes)
      (property "Reference" "#PWR" (at 0 -3.81 0)
        (effects (font (size 1.27 1.27)) hide)
      )
      (property "Value" "PWR_5V" (at 0 3.556 0)
        (effects (font (size 1.27 1.27)))
      )
      (property "Footprint" "" (at 0 0 0)
        (effects (font (size 1.27 1.27)) hide)
      )
      (property "Datasheet" "" (at 0 0 0)
        (effects (font (size 1.27 1.27)) hide)
      )
      (property "ki_keywords" "power-flag" (at 0 0 0)
        (effects (font (size 1.27 1.27)) hide)
      )
      (property "ki_description" "Power symbol creates a global label with name \"+5V\"" (at 0 0 0)
        (effects (font (size 1.27 1.27)) hide)
      )
      (symbol "PWR_5V_0_1"
        (polyline
          (pts
            (xy -0.762 1.27)
            (xy 0 2.54)
          )
          (stroke (width 0) (type default))
          (fill (type none))
        )
        (polyline
          (pts
            (xy 0 0)
            (xy 0 2.54)
          )
          (stroke (width 0) (type default))
          (fill (type none))
        )
        (polyline
          (pts
            (xy 0 2.54)
            (xy 0.762 1.27)
          )
          (stroke (width 0) (type default))
          (fill (type none))
        )
      )
      (symbol "PWR_5V_1_1"
        (pin power_in line (at 0 0 90) (length 0) hide
          (name "PWR_5V" (effects (font (size 1.27 1.27))))
          (number "1" (effects (font (size 1.27 1.27))))
        )
      )
    )
    (symbol "fab:PWR_FLAG" (power) (pin_numbers hide) (pin_names (offset 0) hide) (in_bom yes) (on_board yes)
      (property "Reference" "#FLG" (at 0 0 0)
        (effects (font (size 1.27 1.27)) hide)
      )
      (property "Value" "PWR_FLAG" (at 0 3.81 0)
        (effects (font (size 1.27 1.27)))
      )
      (property "Footprint" "" (at 0 0 0)
        (effects (font (size 1.27 1.27)) hide)
      )
      (property "Datasheet" "~" (at 0 0 0)
        (effects (font (size 1.27 1.27)) hide)
      )
      (property "ki_keywords" "power-flag" (at 0 0 0)
        (effects (font (size 1.27 1.27)) hide)
      )
      (property "ki_description" "Special symbol for telling ERC where power comes from" (at 0 0 0)
        (effects (font (size 1.27 1.27)) hide)
      )
      (symbol "PWR_FLAG_0_1"
        (polyline
          (pts
            (xy 0 0)
            (xy 0 1.27)
            (xy -1.016 1.905)
            (xy 0 2.54)
            (xy 1.016 1.905)
            (xy 0 1.27)
          )
          (stroke (width 0) (type default))
          (fill (type none))
        )
      )
      (symbol "PWR_FLAG_1_0"
        (pin power_out line (at 0 0 90) (length 0)
          (name "PWR_FLAG" (effects (font (size 1.27 1.27))))
          (number "1" (effects (font (size 1.27 1.27))))
        )
      )
    )
    (symbol "fab:PWR_GND" (power) (pin_names (offset 0)) (in_bom yes) (on_board yes)
      (property "Reference" "#PWR" (at 0 -6.35 0)
        (effects (font (size 1.27 1.27)) hide)
      )
      (property "Value" "PWR_GND" (at 0 -3.81 0)
        (effects (font (size 1.27 1.27)))
      )
      (property "Footprint" "" (at 0 0 0)
        (effects (font (size 1.27 1.27)) hide)
      )
      (property "Datasheet" "" (at 0 0 0)
        (effects (font (size 1.27 1.27)) hide)
      )
      (property "ki_keywords" "power-flag" (at 0 0 0)
        (effects (font (size 1.27 1.27)) hide)
      )
      (property "ki_description" "Power symbol creates a global label with name \"GND\" , ground" (at 0 0 0)
        (effects (font (size 1.27 1.27)) hide)
      )
      (symbol "PWR_GND_0_1"
        (polyline
          (pts
            (xy 0 0)
            (xy 0 -1.27)
            (xy 1.27 -1.27)
            (xy 0 -2.54)
            (xy -1.27 -1.27)
            (xy 0 -1.27)
          )
          (stroke (width 0) (type default))
          (fill (type none))
        )
      )
      (symbol "PWR_GND_1_1"
        (pin power_in line (at 0 0 270) (length 0) hide
          (name "PWR_GND" (effects (font (size 1.27 1.27))))
          (number "1" (effects (font (size 1.27 1.27))))
        )
      )
    )
    (symbol "fab:R_1206" (pin_numbers hide) (pin_names (offset 0)) (in_bom yes) (on_board yes)
      (property "Reference" "R" (at 2.54 0 90)
        (effects (font (size 1.27 1.27)))
      )
      (property "Value" "R_1206" (at -2.54 0 90)
        (effects (font (size 1.27 1.27)))
      )
      (property "Footprint" "fab:R_1206" (at 0 0 90)
        (effects (font (size 1.27 1.27)) hide)
      )
      (property "Datasheet" "~" (at 0 0 0)
        (effects (font (size 1.27 1.27)) hide)
      )
      (property "ki_keywords" "R res resistor RC1206FR-074M99L RC1206FR-07499KL RC1206FR-0749K9L RC1206FR-0749R9L RC1206FR-074R99L ERJ-8BWJR100V RC1206FR-070RL RC1206FR-071RL RC1206FR-0710RL RC1206FR-07100RL RC1206FR-07499RL RC1206FR-071KL RC1206FR-074K99L RC1206FR-0710KL RC1206FR-07100KL RC1206FR-071ML RC1206FR-0710ML PT1206FR-070R1L" (at 0 0 0)
        (effects (font (size 1.27 1.27)) hide)
      )
      (property "ki_description" "Resistor" (at 0 0 0)
        (effects (font (size 1.27 1.27)) hide)
      )
      (property "ki_fp_filters" "*R*1206*" (at 0 0 0)
        (effects (font (size 1.27 1.27)) hide)
      )
      (symbol "R_1206_0_1"
        (rectangle (start -1.016 -2.54) (end 1.016 2.54)
          (stroke (width 0.254) (type default))
          (fill (type background))
        )
      )
      (symbol "R_1206_1_1"
        (pin passive line (at 0 5.08 270) (length 2.54)
          (name "~" (effects (font (size 1.27 1.27))))
          (number "1" (effects (font (size 1.27 1.27))))
        )
        (pin passive line (at 0 -5.08 90) (length 2.54)
          (name "~" (effects (font (size 1.27 1.27))))
          (number "2" (effects (font (size 1.27 1.27))))
        )
      )
    )
    (symbol "fab:R_POT_10K_Trimmer" (pin_names (offset 1.016) hide) (in_bom yes) (on_board yes)
      (property "Reference" "RV" (at -5.08 0 90)
        (effects (font (size 1.27 1.27)))
      )
      (property "Value" "R_POT_10K_Trimmer" (at -2.54 0 90)
        (effects (font (size 1.27 1.27)))
      )
      (property "Footprint" "fab:Potentiometer_TT_Model-23_4.5x5.0x3.0mm" (at 0 0 0)
        (effects (font (size 1.27 1.27)) hide)
      )
      (property "Datasheet" "https://www.ttelectronics.com/TTElectronics/media/ProductFiles/Trimmers/Datasheets/23.pdf" (at 0 0 0)
        (effects (font (size 1.27 1.27)) hide)
      )
      (property "ki_keywords" "resistor variable trimmer ST4ETB103" (at 0 0 0)
        (effects (font (size 1.27 1.27)) hide)
      )
      (property "ki_description" "Trimmer Potentiometer 10K TT Electronics 23BR10KLFTR" (at 0 0 0)
        (effects (font (size 1.27 1.27)) hide)
      )
      (property "ki_fp_filters" "Potentiometer*" (at 0 0 0)
        (effects (font (size 1.27 1.27)) hide)
      )
      (symbol "R_POT_10K_Trimmer_0_1"
        (polyline
          (pts
            (xy 2.54 0)
            (xy 1.524 0)
          )
          (stroke (width 0) (type default))
          (fill (type none))
        )
        (polyline
          (pts
            (xy 1.143 0)
            (xy 2.286 0.508)
            (xy 2.286 -0.508)
            (xy 1.143 0)
          )
          (stroke (width 0) (type default))
          (fill (type outline))
        )
        (rectangle (start 1.016 2.54) (end -1.016 -2.54)
          (stroke (width 0.254) (type default))
          (fill (type background))
        )
      )
      (symbol "R_POT_10K_Trimmer_1_1"
        (pin passive line (at 0 5.08 270) (length 2.54)
          (name "1" (effects (font (size 1.27 1.27))))
          (number "1" (effects (font (size 1.27 1.27))))
        )
        (pin passive line (at 5.08 0 180) (length 2.54)
          (name "2" (effects (font (size 1.27 1.27))))
          (number "2" (effects (font (size 1.27 1.27))))
        )
        (pin passive line (at 0 -5.08 90) (length 2.54)
          (name "3" (effects (font (size 1.27 1.27))))
          (number "3" (effects (font (size 1.27 1.27))))
        )
      )
    )
    (symbol "fab:Screw_Terminal_01x02_P3.5mm" (pin_names (offset 1.016) hide) (in_bom yes) (on_board yes)
      (property "Reference" "J" (at 0 3.81 0)
        (effects (font (size 1.27 1.27)))
      )
      (property "Value" "Screw_Terminal_01x02_P3.5mm" (at 0 -3.81 0)
        (effects (font (size 1.27 1.27)))
      )
      (property "Footprint" "fab:TerminalBlock_OnShore_1x02_P3.50mm_Horizontal" (at 0 0 0)
        (effects (font (size 1.27 1.27)) hide)
      )
      (property "Datasheet" "www.on-shore.com/wp-content/uploads/ED555XDS.pdf" (at 0 0 0)
        (effects (font (size 1.27 1.27)) hide)
      )
      (property "ki_keywords" "screw terminal" (at 0 0 0)
        (effects (font (size 1.27 1.27)) hide)
      )
      (property "ki_description" "TERM BLK 2POS SIDE ENT 3.5MM PCB" (at 0 0 0)
        (effects (font (size 1.27 1.27)) hide)
      )
      (property "ki_fp_filters" "*TerminalBlock*1x02*P3.50mm*" (at 0 0 0)
        (effects (font (size 1.27 1.27)) hide)
      )
      (symbol "Screw_Terminal_01x02_P3.5mm_1_1"
        (rectangle (start -1.27 2.54) (end 1.27 -2.54)
          (stroke (width 0.254) (type default))
          (fill (type background))
        )
        (circle (center 0 -1.27) (radius 0.635)
          (stroke (width 0.1524) (type default))
          (fill (type none))
        )
        (polyline
          (pts
            (xy -0.5334 -0.9398)
            (xy 0.3302 -1.778)
          )
          (stroke (width 0.1524) (type default))
          (fill (type none))
        )
        (polyline
          (pts
            (xy -0.5334 1.6002)
            (xy 0.3302 0.762)
          )
          (stroke (width 0.1524) (type default))
          (fill (type none))
        )
        (polyline
          (pts
            (xy -0.3556 -0.762)
            (xy 0.508 -1.6002)
          )
          (stroke (width 0.1524) (type default))
          (fill (type none))
        )
        (polyline
          (pts
            (xy -0.3556 1.778)
            (xy 0.508 0.9398)
          )
          (stroke (width 0.1524) (type default))
          (fill (type none))
        )
        (circle (center 0 1.27) (radius 0.635)
          (stroke (width 0.1524) (type default))
          (fill (type none))
        )
        (pin passive line (at -5.08 1.27 0) (length 3.81)
          (name "Pin_1" (effects (font (size 1.27 1.27))))
          (number "1" (effects (font (size 1.27 1.27))))
        )
        (pin passive line (at -5.08 -1.27 0) (length 3.81)
          (name "Pin_2" (effects (font (size 1.27 1.27))))
          (number "2" (effects (font (size 1.27 1.27))))
        )
      )
    )
    (symbol "fab:Switch_Slide_RightAngle_CnK" (pin_names (offset 0) hide) (in_bom yes) (on_board yes)
      (property "Reference" "SW" (at 0 4.318 0)
        (effects (font (size 1.27 1.27)))
      )
      (property "Value" "Switch_Slide_RightAngle_CnK" (at 0 -5.08 0)
        (effects (font (size 1.27 1.27)))
      )
      (property "Footprint" "fab:Switch_Slide_RightAngle_CnK_AYZ0102AGRLC_7.2x3mm" (at 0 0 0)
        (effects (font (size 1.27 1.27)) hide)
      )
      (property "Datasheet" "https://www.ckswitches.com/media/1431/ayz.pdf" (at 0 0 0)
        (effects (font (size 1.27 1.27)) hide)
      )
      (property "ki_keywords" "switch single-pole double-throw spdt ON-ON AYZ0102AGRLC" (at 0 0 0)
        (effects (font (size 1.27 1.27)) hide)
      )
      (property "ki_description" "Slide Switch SPDT Surface Mount, Right Angle" (at 0 0 0)
        (effects (font (size 1.27 1.27)) hide)
      )
      (property "ki_fp_filters" "*Switch*CnK?AYZ0102AGRLC*" (at 0 0 0)
        (effects (font (size 1.27 1.27)) hide)
      )
      (symbol "Switch_Slide_RightAngle_CnK_0_0"
        (circle (center -2.032 0) (radius 0.508)
          (stroke (width 0) (type default))
          (fill (type none))
        )
        (circle (center 2.032 -2.54) (radius 0.508)
          (stroke (width 0) (type default))
          (fill (type none))
        )
      )
      (symbol "Switch_Slide_RightAngle_CnK_0_1"
        (polyline
          (pts
            (xy -1.524 0.254)
            (xy 1.651 2.286)
          )
          (stroke (width 0) (type default))
          (fill (type none))
        )
        (circle (center 2.032 2.54) (radius 0.508)
          (stroke (width 0) (type default))
          (fill (type none))
        )
      )
      (symbol "Switch_Slide_RightAngle_CnK_1_1"
        (pin passive line (at 5.08 2.54 180) (length 2.54)
          (name "A" (effects (font (size 1.27 1.27))))
          (number "1" (effects (font (size 1.27 1.27))))
        )
        (pin passive line (at -5.08 0 0) (length 2.54)
          (name "B" (effects (font (size 1.27 1.27))))
          (number "2" (effects (font (size 1.27 1.27))))
        )
        (pin passive line (at 5.08 -2.54 180) (length 2.54)
          (name "C" (effects (font (size 1.27 1.27))))
          (number "3" (effects (font (size 1.27 1.27))))
        )
      )
    )
  )

  (junction (at 57.15 147.32) (diameter 0) (color 0 0 0 0)
    (uuid 139b5b65-08b7-4d88-8236-c81a0ae85cef)
  )
  (junction (at 218.44 77.47) (diameter 0) (color 0 0 0 0)
    (uuid 158cb89f-668f-4ed3-81cb-360bed638298)
  )
  (junction (at 48.26 39.37) (diameter 0) (color 0 0 0 0)
    (uuid 176c4cbe-21b5-48a5-a43d-f42074d1af4c)
  )
  (junction (at 72.39 134.62) (diameter 0) (color 0 0 0 0)
    (uuid 30fe0f40-1427-407b-9387-aafc0120ba54)
  )
  (junction (at 203.2 64.77) (diameter 0) (color 0 0 0 0)
    (uuid 3ff4278a-4a4c-4251-9f78-4734a746dfa0)
  )
  (junction (at 45.72 39.37) (diameter 0) (color 0 0 0 0)
    (uuid 763f666f-6a48-4c06-bd9e-ecfee88db035)
  )
  (junction (at 72.39 147.32) (diameter 0) (color 0 0 0 0)
    (uuid 768706ba-2ae4-4bb8-a605-5e7c00acbf4a)
  )
  (junction (at 33.02 161.29) (diameter 0) (color 0 0 0 0)
    (uuid 7bc3aaa5-03d6-46ac-bcd2-9b12deb8bac7)
  )
  (junction (at 43.18 166.37) (diameter 0) (color 0 0 0 0)
    (uuid 898a5a85-3f4b-4b49-a60a-bd09f2728a98)
  )
  (junction (at 167.64 74.93) (diameter 0) (color 0 0 0 0)
    (uuid a0a552db-f71b-43b0-a71a-20577fc82f6d)
  )
  (junction (at 185.42 46.99) (diameter 0) (color 0 0 0 0)
    (uuid ac56479b-e5c2-43b2-9c7c-3ea77186f8cc)
  )
  (junction (at 167.64 82.55) (diameter 0) (color 0 0 0 0)
    (uuid cb7a54f6-34b8-47f8-af62-7338271aff7a)
  )
  (junction (at 48.26 83.82) (diameter 0) (color 0 0 0 0)
    (uuid d36bd803-667c-4669-b149-6dfa370ac6f7)
  )

  (no_connect (at 35.56 64.77) (uuid 136784f3-ea2e-4b0f-bc6f-a39ffcfe68fc))
  (no_connect (at 35.56 57.15) (uuid 16ab74b2-9568-4759-b572-1139ff237389))
  (no_connect (at 35.56 67.31) (uuid 3f29bf68-2634-4bf3-b750-22bbc0bb34be))
  (no_connect (at 158.75 69.85) (uuid 43f44060-85ab-4833-823c-a67d984e635e))
  (no_connect (at 35.56 52.07) (uuid 69e4887f-2c5b-4b5b-a123-bc2a006265d3))
  (no_connect (at 35.56 72.39) (uuid 762af531-703b-4646-af77-7443dedcba71))
  (no_connect (at 35.56 49.53) (uuid a165bf6e-e359-4cd9-8123-fca855296299))
  (no_connect (at 35.56 54.61) (uuid d029e7b4-5ef0-45e5-9475-7c6e0a435af9))
  (no_connect (at 35.56 69.85) (uuid ea770736-a67d-492d-a97b-4c08c3e04c28))
  (no_connect (at 35.56 74.93) (uuid f500c7c2-c647-4229-9477-ecbb112d99f0))

  (wire (pts (xy 17.78 62.23) (xy 35.56 62.23))
    (stroke (width 0) (type default))
    (uuid 0086b487-580a-4609-a950-4c3ad8a5c319)
  )
  (wire (pts (xy 146.05 72.39) (xy 146.05 83.82))
    (stroke (width 0) (type default))
    (uuid 088bbb6a-6a65-440e-be2a-e784bb522925)
  )
  (wire (pts (xy 48.26 80.01) (xy 48.26 83.82))
    (stroke (width 0) (type default))
    (uuid 0af077cc-0652-43e6-b30d-5dfd859e356e)
  )
  (wire (pts (xy 45.72 35.56) (xy 45.72 39.37))
    (stroke (width 0) (type default))
    (uuid 0c826f8d-1f4c-40b4-b373-16148de01ade)
  )
  (wire (pts (xy 223.52 46.99) (xy 236.22 46.99))
    (stroke (width 0) (type default))
    (uuid 11c8f327-101f-47c6-a553-df716a3c3d1f)
  )
  (wire (pts (xy 57.15 147.32) (xy 57.15 152.4))
    (stroke (width 0) (type default))
    (uuid 11f05aee-ceae-4170-9b0a-2ab63753ddf8)
  )
  (wire (pts (xy 167.64 57.15) (xy 167.64 60.96))
    (stroke (width 0) (type default))
    (uuid 194da449-ea39-461b-8c1c-847fad9fc375)
  )
  (wire (pts (xy 48.26 35.56) (xy 48.26 39.37))
    (stroke (width 0) (type default))
    (uuid 1dd8648d-634c-44b0-a4d4-a2493f18e808)
  )
  (wire (pts (xy 48.26 83.82) (xy 48.26 87.63))
    (stroke (width 0) (type default))
    (uuid 1fb7c4b8-d899-4337-add2-3cad3aa46bad)
  )
  (wire (pts (xy 203.2 58.42) (xy 203.2 64.77))
    (stroke (width 0) (type default))
    (uuid 21161102-1491-4803-8e73-b83c1923699f)
  )
  (wire (pts (xy 43.18 166.37) (xy 62.23 166.37))
    (stroke (width 0) (type default))
    (uuid 266b271a-34b0-40b8-9889-2a1be5ae09c2)
  )
  (wire (pts (xy 72.39 147.32) (xy 72.39 156.21))
    (stroke (width 0) (type default))
    (uuid 2c3c8aab-bb02-4b3d-8fd2-85130c9421f8)
  )
  (wire (pts (xy 82.55 161.29) (xy 100.33 161.29))
    (stroke (width 0) (type default))
    (uuid 30582714-6873-4b14-81eb-3588001ca506)
  )
  (wire (pts (xy 57.15 134.62) (xy 57.15 147.32))
    (stroke (width 0) (type default))
    (uuid 323f434b-38e0-47b5-b572-925ef620e991)
  )
  (wire (pts (xy 198.12 46.99) (xy 213.36 46.99))
    (stroke (width 0) (type default))
    (uuid 345f9ac6-7bf2-4939-8685-fa336e0ec929)
  )
  (wire (pts (xy 167.64 82.55) (xy 167.64 77.47))
    (stroke (width 0) (type default))
    (uuid 3f1f737f-c77b-49ef-aa85-a12cbc9dd488)
  )
  (wire (pts (xy 48.26 39.37) (xy 48.26 44.45))
    (stroke (width 0) (type default))
    (uuid 496bad03-bbcd-4e9c-9dcf-90c57a9b0d78)
  )
  (wire (pts (xy 218.44 77.47) (xy 223.52 77.47))
    (stroke (width 0) (type default))
    (uuid 4f45816f-6e87-4a2a-93fe-5a06534804fe)
  )
  (wire (pts (xy 57.15 163.83) (xy 57.15 179.07))
    (stroke (width 0) (type default))
    (uuid 54b01906-fd65-403b-96e1-97b64928bafe)
  )
  (wire (pts (xy 185.42 46.99) (xy 187.96 46.99))
    (stroke (width 0) (type default))
    (uuid 5926930e-6ce3-472a-a2b7-056a4dd9bbca)
  )
  (wire (pts (xy 185.42 46.99) (xy 185.42 85.09))
    (stroke (width 0) (type default))
    (uuid 59e515ed-3db5-414a-a183-edd3aa1d6022)
  )
  (wire (pts (xy 72.39 171.45) (xy 72.39 179.07))
    (stroke (width 0) (type default))
    (uuid 5e0506b5-018f-41ba-9b0b-7707ebf48a9f)
  )
  (wire (pts (xy 182.88 46.99) (xy 185.42 46.99))
    (stroke (width 0) (type default))
    (uuid 5ff539a3-0452-4abb-8dfa-00c525729521)
  )
  (wire (pts (xy 43.18 143.51) (xy 43.18 156.21))
    (stroke (width 0) (type default))
    (uuid 67096fed-e8bf-4475-861d-4b0b090fb773)
  )
  (wire (pts (xy 148.59 72.39) (xy 146.05 72.39))
    (stroke (width 0) (type default))
    (uuid 73f28402-6f28-4603-b95e-d19257d0f9dc)
  )
  (wire (pts (xy 203.2 90.17) (xy 203.2 106.68))
    (stroke (width 0) (type default))
    (uuid 86f1b881-5c8c-4585-b69a-6780ffb8a12a)
  )
  (wire (pts (xy 218.44 52.07) (xy 218.44 77.47))
    (stroke (width 0) (type default))
    (uuid 87539a87-7750-49a9-bdf4-d025dc9f46d4)
  )
  (wire (pts (xy 167.64 74.93) (xy 193.04 74.93))
    (stroke (width 0) (type default))
    (uuid 89022d4b-5d10-447f-862a-279b503b1b87)
  )
  (wire (pts (xy 236.22 46.99) (xy 236.22 57.15))
    (stroke (width 0) (type default))
    (uuid 8b901310-d9ba-47ef-8cf1-7b33a74df410)
  )
  (wire (pts (xy 21.59 166.37) (xy 43.18 166.37))
    (stroke (width 0) (type default))
    (uuid 908ca1e9-b82f-47e3-b34e-265015364092)
  )
  (wire (pts (xy 33.02 143.51) (xy 33.02 151.13))
    (stroke (width 0) (type default))
    (uuid 93a3d3d4-9c24-4261-878b-1061e1ebd8d4)
  )
  (wire (pts (xy 170.18 46.99) (xy 172.72 46.99))
    (stroke (width 0) (type default))
    (uuid 95aa443d-5981-4f27-9f2b-4755df001687)
  )
  (wire (pts (xy 72.39 134.62) (xy 72.39 147.32))
    (stroke (width 0) (type default))
    (uuid a76d1992-ed2c-42ae-be30-9ba80097f911)
  )
  (wire (pts (xy 167.64 71.12) (xy 167.64 74.93))
    (stroke (width 0) (type default))
    (uuid ab2433ac-750f-4cc5-9751-e89cc74dd1b2)
  )
  (wire (pts (xy 33.02 161.29) (xy 62.23 161.29))
    (stroke (width 0) (type default))
    (uuid ad952b80-be12-4956-9dd9-1b215a4ce501)
  )
  (wire (pts (xy 156.21 46.99) (xy 160.02 46.99))
    (stroke (width 0) (type default))
    (uuid b43d9607-7e53-486a-b519-81bd5b0ea2d7)
  )
  (wire (pts (xy 167.64 77.47) (xy 193.04 77.47))
    (stroke (width 0) (type default))
    (uuid b73f6037-664d-4e87-b9ea-5b9e5711c59b)
  )
  (wire (pts (xy 218.44 77.47) (xy 213.36 77.47))
    (stroke (width 0) (type default))
    (uuid b9294775-7391-4ef4-a49b-66407443d16f)
  )
  (wire (pts (xy 72.39 127) (xy 72.39 134.62))
    (stroke (width 0) (type default))
    (uuid ba899d7b-731f-42c8-90e1-c9ab6ca2e115)
  )
  (wire (pts (xy 21.59 161.29) (xy 33.02 161.29))
    (stroke (width 0) (type default))
    (uuid c11b07e3-f856-4418-8be8-ab621658d0bd)
  )
  (wire (pts (xy 123.19 46.99) (xy 132.08 46.99))
    (stroke (width 0) (type default))
    (uuid c58f1483-8f6e-4060-a5ea-8a4db56a4279)
  )
  (wire (pts (xy 203.2 64.77) (xy 203.2 69.85))
    (stroke (width 0) (type default))
    (uuid c92b3c3d-a002-4003-ba13-11364bc7a02c)
  )
  (wire (pts (xy 142.24 46.99) (xy 146.05 46.99))
    (stroke (width 0) (type default))
    (uuid d005e540-27c6-4168-b379-ffd2c8087aeb)
  )
  (wire (pts (xy 158.75 74.93) (xy 167.64 74.93))
    (stroke (width 0) (type default))
    (uuid d1ebe5c6-1332-403f-bb07-44fe8a636524)
  )
  (wire (pts (xy 167.64 99.06) (xy 167.64 105.41))
    (stroke (width 0) (type default))
    (uuid df3d0ee1-4b70-4314-af7b-5a5e949314e7)
  )
  (wire (pts (xy 57.15 147.32) (xy 62.23 147.32))
    (stroke (width 0) (type default))
    (uuid e94e40c3-47a7-4963-b254-cbaa402f96d7)
  )
  (wire (pts (xy 185.42 85.09) (xy 193.04 85.09))
    (stroke (width 0) (type default))
    (uuid ea2e49b9-43ff-479b-ba8b-3fb8beacb9ed)
  )
  (wire (pts (xy 167.64 88.9) (xy 167.64 82.55))
    (stroke (width 0) (type default))
    (uuid eac55312-0a96-4eb2-9172-49093cf17d02)
  )
  (wire (pts (xy 17.78 59.69) (xy 35.56 59.69))
    (stroke (width 0) (type default))
    (uuid ebd96132-3676-401e-8e87-519aab708f8b)
  )
  (wire (pts (xy 167.64 82.55) (xy 193.04 82.55))
    (stroke (width 0) (type default))
    (uuid ebdff833-5fc0-4f06-bbbb-0fb7e29e35e9)
  )
  (wire (pts (xy 62.23 134.62) (xy 57.15 134.62))
    (stroke (width 0) (type default))
    (uuid f19e4434-dd7b-4fa4-be97-60ace430bd0b)
  )
  (wire (pts (xy 62.23 163.83) (xy 57.15 163.83))
    (stroke (width 0) (type default))
    (uuid f37e96c1-fe7e-4f3b-9308-f60c891f1245)
  )
  (wire (pts (xy 213.36 80.01) (xy 223.52 80.01))
    (stroke (width 0) (type default))
    (uuid fceb670e-ef91-4ee4-8a86-7a282d8541a5)
  )
  (wire (pts (xy 45.72 39.37) (xy 45.72 44.45))
    (stroke (width 0) (type default))
    (uuid fd9d72ca-2d0b-4041-be03-d13b95462ab0)
  )

  (text "5.3 Voltage Reference\nThe MCP4725 device uses the VDD as its voltage\nreference. Any variation or noises on the VDD line can\naffect directly on the DAC output. The VDD needs to be\nas clean as possible for accurate DAC performance. "
    (at 57.15 116.84 0)
    (effects (font (size 1.27 1.27)) (justify left bottom))
    (uuid ea49e456-14c5-4e6b-bf4d-ac3bb54ff911)
  )

  (label "DACOUT" (at 123.19 46.99 0) (fields_autoplaced)
    (effects (font (size 1.27 1.27)) (justify left bottom))
    (uuid 0ba62657-83b2-4873-b190-da241ec01746)
  )
  (label "SCL" (at 21.59 161.29 0) (fields_autoplaced)
    (effects (font (size 1.27 1.27)) (justify left bottom))
    (uuid 2d9377fa-1ccb-4d48-a0ac-1705e5336838)
  )
  (label "SDA" (at 17.78 59.69 0) (fields_autoplaced)
    (effects (font (size 1.27 1.27)) (justify left bottom))
    (uuid 81148377-8de0-47d9-ad85-33d191d64d7d)
  )
  (label "DACOUT" (at 100.33 161.29 180) (fields_autoplaced)
    (effects (font (size 1.27 1.27)) (justify right bottom))
    (uuid aa383149-7255-4ee1-8c39-ebba56070c5c)
  )
  (label "SDA" (at 21.59 166.37 0) (fields_autoplaced)
    (effects (font (size 1.27 1.27)) (justify left bottom))
    (uuid b9b91538-ba7a-4525-a657-43e057b36b1f)
  )
  (label "SCL" (at 17.78 62.23 0) (fields_autoplaced)
    (effects (font (size 1.27 1.27)) (justify left bottom))
    (uuid bdbd3c9c-033b-4635-850e-689f2ecb2b65)
  )

  (symbol (lib_id "fab:PWR_GND") (at 167.64 105.41 0) (unit 1)
    (in_bom yes) (on_board yes) (dnp no) (fields_autoplaced)
    (uuid 09f7e9f8-5c14-4c9b-a1aa-32403a508d32)
    (property "Reference" "#PWR010" (at 167.64 111.76 0)
      (effects (font (size 1.27 1.27)) hide)
    )
    (property "Value" "PWR_GND" (at 167.64 110.49 0)
      (effects (font (size 1.27 1.27)))
    )
    (property "Footprint" "" (at 167.64 105.41 0)
      (effects (font (size 1.27 1.27)) hide)
    )
    (property "Datasheet" "" (at 167.64 105.41 0)
      (effects (font (size 1.27 1.27)) hide)
    )
    (pin "1" (uuid 2f75fe6a-1f4e-4a75-a2cb-cf78196d401b))
    (instances
      (project "Demo_ExternalDAC_XIAO"
        (path "/55bea2ff-21ac-4276-9a5c-edbc15f06e97"
          (reference "#PWR010") (unit 1)
        )
      )
    )
  )

  (symbol (lib_id "fab:Switch_Slide_RightAngle_CnK") (at 153.67 72.39 0) (unit 1)
    (in_bom yes) (on_board yes) (dnp no) (fields_autoplaced)
    (uuid 0ad45c6f-0268-4db2-acaf-d87613f72edf)
    (property "Reference" "SW2" (at 153.67 64.77 0)
      (effects (font (size 1.27 1.27)))
    )
    (property "Value" "Switch_Slide_RightAngle_CnK" (at 153.67 67.31 0)
      (effects (font (size 1.27 1.27)))
    )
    (property "Footprint" "fab:Switch_Slide_RightAngle_CnK_AYZ0102AGRLC_7.2x3mm" (at 153.67 72.39 0)
      (effects (font (size 1.27 1.27)) hide)
    )
    (property "Datasheet" "https://www.ckswitches.com/media/1431/ayz.pdf" (at 153.67 72.39 0)
      (effects (font (size 1.27 1.27)) hide)
    )
    (pin "1" (uuid e0bee540-7189-479d-a34c-897b02e422e6))
    (pin "3" (uuid 2da03cfb-0d49-4631-b7a0-d519ce743c52))
    (pin "2" (uuid 1b17ee2b-c24d-41da-adfb-b0a373bdf71d))
    (instances
      (project "Demo_ExternalDAC_XIAO"
        (path "/55bea2ff-21ac-4276-9a5c-edbc15f06e97"
          (reference "SW2") (unit 1)
        )
      )
    )
  )

  (symbol (lib_id "fab:PWR_GND") (at 236.22 57.15 0) (unit 1)
    (in_bom yes) (on_board yes) (dnp no) (fields_autoplaced)
    (uuid 105fc8fa-d4a6-4fb9-ac1d-1c0f13ebfbac)
    (property "Reference" "#PWR09" (at 236.22 63.5 0)
      (effects (font (size 1.27 1.27)) hide)
    )
    (property "Value" "PWR_GND" (at 236.22 62.23 0)
      (effects (font (size 1.27 1.27)))
    )
    (property "Footprint" "" (at 236.22 57.15 0)
      (effects (font (size 1.27 1.27)) hide)
    )
    (property "Datasheet" "" (at 236.22 57.15 0)
      (effects (font (size 1.27 1.27)) hide)
    )
    (pin "1" (uuid 30711f1b-4c4f-4f6e-a86a-3d1d804081b4))
    (instances
      (project "Demo_ExternalDAC_XIAO"
        (path "/55bea2ff-21ac-4276-9a5c-edbc15f06e97"
          (reference "#PWR09") (unit 1)
        )
      )
    )
  )

  (symbol (lib_id "fab:PWR_GND") (at 203.2 106.68 0) (unit 1)
    (in_bom yes) (on_board yes) (dnp no) (fields_autoplaced)
    (uuid 1175eed8-74fb-4369-8476-453d936beadb)
    (property "Reference" "#PWR013" (at 203.2 113.03 0)
      (effects (font (size 1.27 1.27)) hide)
    )
    (property "Value" "PWR_GND" (at 203.2 111.76 0)
      (effects (font (size 1.27 1.27)))
    )
    (property "Footprint" "" (at 203.2 106.68 0)
      (effects (font (size 1.27 1.27)) hide)
    )
    (property "Datasheet" "" (at 203.2 106.68 0)
      (effects (font (size 1.27 1.27)) hide)
    )
    (pin "1" (uuid 30f311bf-21c4-407d-ab96-96e9338b5724))
    (instances
      (project "Demo_ExternalDAC_XIAO"
        (path "/55bea2ff-21ac-4276-9a5c-edbc15f06e97"
          (reference "#PWR013") (unit 1)
        )
      )
    )
  )

  (symbol (lib_id "fab:PWR_5V") (at 203.2 58.42 0) (unit 1)
    (in_bom yes) (on_board yes) (dnp no) (fields_autoplaced)
    (uuid 142e8f06-7988-489d-8303-973561ec033e)
    (property "Reference" "#PWR011" (at 203.2 62.23 0)
      (effects (font (size 1.27 1.27)) hide)
    )
    (property "Value" "PWR_5V" (at 203.2 53.34 0)
      (effects (font (size 1.27 1.27)))
    )
    (property "Footprint" "" (at 203.2 58.42 0)
      (effects (font (size 1.27 1.27)) hide)
    )
    (property "Datasheet" "" (at 203.2 58.42 0)
      (effects (font (size 1.27 1.27)) hide)
    )
    (pin "1" (uuid 80cb47dc-c5ef-418e-af5c-4f9137c40ce7))
    (instances
      (project "Demo_ExternalDAC_XIAO"
        (path "/55bea2ff-21ac-4276-9a5c-edbc15f06e97"
          (reference "#PWR011") (unit 1)
        )
      )
    )
  )

  (symbol (lib_id "fab:PWR_3V3") (at 45.72 35.56 0) (unit 1)
    (in_bom yes) (on_board yes) (dnp no) (fields_autoplaced)
    (uuid 1fb31854-0400-477c-b963-f9229981a31b)
    (property "Reference" "#PWR03" (at 45.72 39.37 0)
      (effects (font (size 1.27 1.27)) hide)
    )
    (property "Value" "PWR_3V3" (at 45.72 30.48 0)
      (effects (font (size 1.27 1.27)))
    )
    (property "Footprint" "" (at 45.72 35.56 0)
      (effects (font (size 1.27 1.27)) hide)
    )
    (property "Datasheet" "" (at 45.72 35.56 0)
      (effects (font (size 1.27 1.27)) hide)
    )
    (pin "1" (uuid 6ece727b-09ac-41a6-996d-7e1b92ea42d9))
    (instances
      (project "Demo_ExternalDAC_XIAO"
        (path "/55bea2ff-21ac-4276-9a5c-edbc15f06e97"
          (reference "#PWR03") (unit 1)
        )
      )
    )
  )

  (symbol (lib_id "fab:R_1206") (at 167.64 66.04 180) (unit 1)
    (in_bom yes) (on_board yes) (dnp no) (fields_autoplaced)
    (uuid 253d3f60-c7db-485d-a358-61dbb22f6188)
    (property "Reference" "R7" (at 170.18 64.77 0)
      (effects (font (size 1.27 1.27)) (justify right))
    )
    (property "Value" "10k" (at 170.18 67.31 0)
      (effects (font (size 1.27 1.27)) (justify right))
    )
    (property "Footprint" "fab:R_1206" (at 167.64 66.04 90)
      (effects (font (size 1.27 1.27)) hide)
    )
    (property "Datasheet" "~" (at 167.64 66.04 0)
      (effects (font (size 1.27 1.27)) hide)
    )
    (pin "2" (uuid 1057eee9-3004-496b-b201-35d1996922ce))
    (pin "1" (uuid 8d2e53fb-b516-43bc-ae9c-ce5ae8384437))
    (instances
      (project "Demo_ExternalDAC_XIAO"
        (path "/55bea2ff-21ac-4276-9a5c-edbc15f06e97"
          (reference "R7") (unit 1)
        )
      )
    )
  )

  (symbol (lib_id "fab:C_1206") (at 137.16 46.99 90) (unit 1)
    (in_bom yes) (on_board yes) (dnp no) (fields_autoplaced)
    (uuid 286f045f-e667-44eb-9ee4-70428e593905)
    (property "Reference" "C6" (at 137.16 39.37 90)
      (effects (font (size 1.27 1.27)))
    )
    (property "Value" "1uF" (at 137.16 41.91 90)
      (effects (font (size 1.27 1.27)))
    )
    (property "Footprint" "fab:C_1206" (at 137.16 46.99 0)
      (effects (font (size 1.27 1.27)) hide)
    )
    (property "Datasheet" "https://www.yageo.com/upload/media/product/productsearch/datasheet/mlcc/UPY-GP_NP0_16V-to-50V_18.pdf" (at 137.16 46.99 0)
      (effects (font (size 1.27 1.27)) hide)
    )
    (pin "1" (uuid 6ba8d603-26f4-4318-92ff-d8c6f88b1684))
    (pin "2" (uuid 2844e88b-b93a-4a91-8470-35134212e09d))
    (instances
      (project "Demo_ExternalDAC_XIAO"
        (path "/55bea2ff-21ac-4276-9a5c-edbc15f06e97"
          (reference "C6") (unit 1)
        )
      )
    )
  )

  (symbol (lib_id "fab:PWR_GND") (at 48.26 87.63 0) (unit 1)
    (in_bom yes) (on_board yes) (dnp no) (fields_autoplaced)
    (uuid 2b7ba66e-b9b4-4056-97e9-3dbf6225578b)
    (property "Reference" "#PWR04" (at 48.26 93.98 0)
      (effects (font (size 1.27 1.27)) hide)
    )
    (property "Value" "PWR_GND" (at 48.26 92.71 0)
      (effects (font (size 1.27 1.27)))
    )
    (property "Footprint" "" (at 48.26 87.63 0)
      (effects (font (size 1.27 1.27)) hide)
    )
    (property "Datasheet" "" (at 48.26 87.63 0)
      (effects (font (size 1.27 1.27)) hide)
    )
    (pin "1" (uuid c3174c34-60cc-4e1e-85d5-f9dde21b3878))
    (instances
      (project "Demo_ExternalDAC_XIAO"
        (path "/55bea2ff-21ac-4276-9a5c-edbc15f06e97"
          (reference "#PWR04") (unit 1)
        )
      )
    )
  )

  (symbol (lib_id "fab:PWR_FLAG") (at 45.72 39.37 90) (unit 1)
    (in_bom yes) (on_board yes) (dnp no) (fields_autoplaced)
    (uuid 34cb306e-79ff-4695-b09c-9530c061c8ff)
    (property "Reference" "#FLG01" (at 45.72 39.37 0)
      (effects (font (size 1.27 1.27)) hide)
    )
    (property "Value" "PWR_FLAG" (at 41.91 39.37 90)
      (effects (font (size 1.27 1.27)) (justify left))
    )
    (property "Footprint" "" (at 45.72 39.37 0)
      (effects (font (size 1.27 1.27)) hide)
    )
    (property "Datasheet" "~" (at 45.72 39.37 0)
      (effects (font (size 1.27 1.27)) hide)
    )
    (pin "1" (uuid 4728d86c-f539-41c7-8af9-62ef7c8c9c62))
    (instances
      (project "Demo_ExternalDAC_XIAO"
        (path "/55bea2ff-21ac-4276-9a5c-edbc15f06e97"
          (reference "#FLG01") (unit 1)
        )
      )
    )
  )

  (symbol (lib_id "fab:C_1206") (at 167.64 93.98 0) (unit 1)
    (in_bom yes) (on_board yes) (dnp no) (fields_autoplaced)
    (uuid 3d9d91e2-2a21-48b3-87ed-ec21007c0519)
    (property "Reference" "C3" (at 171.45 92.71 0)
      (effects (font (size 1.27 1.27)) (justify left))
    )
    (property "Value" "1uF" (at 171.45 95.25 0)
      (effects (font (size 1.27 1.27)) (justify left))
    )
    (property "Footprint" "fab:C_1206" (at 167.64 93.98 0)
      (effects (font (size 1.27 1.27)) hide)
    )
    (property "Datasheet" "https://www.yageo.com/upload/media/product/productsearch/datasheet/mlcc/UPY-GP_NP0_16V-to-50V_18.pdf" (at 167.64 93.98 0)
      (effects (font (size 1.27 1.27)) hide)
    )
    (pin "1" (uuid efe691ae-cbd8-4846-b3da-bd0df30aab20))
    (pin "2" (uuid 6b15eb38-b579-43f6-90cf-f85271983fbd))
    (instances
      (project "Demo_ExternalDAC_XIAO"
        (path "/55bea2ff-21ac-4276-9a5c-edbc15f06e97"
          (reference "C3") (unit 1)
        )
      )
    )
  )

  (symbol (lib_id "fab:R_1206") (at 193.04 46.99 90) (unit 1)
    (in_bom yes) (on_board yes) (dnp no) (fields_autoplaced)
    (uuid 5dd7773f-760e-4fae-aea0-1a8d7c98d8dd)
    (property "Reference" "R5" (at 193.04 40.64 90)
      (effects (font (size 1.27 1.27)) hide)
    )
    (property "Value" "10k" (at 193.04 43.18 90)
      (effects (font (size 1.27 1.27)))
    )
    (property "Footprint" "fab:R_1206" (at 193.04 46.99 90)
      (effects (font (size 1.27 1.27)) hide)
    )
    (property "Datasheet" "~" (at 193.04 46.99 0)
      (effects (font (size 1.27 1.27)) hide)
    )
    (pin "2" (uuid d7b65f05-d0b3-4d95-a533-0822c618c013))
    (pin "1" (uuid 434cc72b-e8a4-4051-94d5-d7a31c4535e8))
    (instances
      (project "Demo_ExternalDAC_XIAO"
        (path "/55bea2ff-21ac-4276-9a5c-edbc15f06e97"
          (reference "R5") (unit 1)
        )
      )
    )
  )

  (symbol (lib_id "fab:R_1206") (at 43.18 161.29 0) (unit 1)
    (in_bom yes) (on_board yes) (dnp no) (fields_autoplaced)
    (uuid 6448b3d5-508c-4cd8-bca8-0429fb0ef0e7)
    (property "Reference" "R2" (at 45.72 160.02 0)
      (effects (font (size 1.27 1.27)) (justify left))
    )
    (property "Value" "4.9k" (at 45.72 162.56 0)
      (effects (font (size 1.27 1.27)) (justify left))
    )
    (property "Footprint" "fab:R_1206" (at 43.18 161.29 90)
      (effects (font (size 1.27 1.27)) hide)
    )
    (property "Datasheet" "~" (at 43.18 161.29 0)
      (effects (font (size 1.27 1.27)) hide)
    )
    (pin "1" (uuid a8b85422-1cbc-4adb-b37a-3d4583c5c186))
    (pin "2" (uuid 8aea5ebb-3bcc-4544-a027-239672d4ec83))
    (instances
      (project "Demo_ExternalDAC_XIAO"
        (path "/55bea2ff-21ac-4276-9a5c-edbc15f06e97"
          (reference "R2") (unit 1)
        )
      )
    )
  )

  (symbol (lib_id "fab:C_1206") (at 151.13 46.99 90) (unit 1)
    (in_bom yes) (on_board yes) (dnp no) (fields_autoplaced)
    (uuid 6887d35a-d157-40f1-aa5a-c3b70cf13f0a)
    (property "Reference" "C4" (at 151.13 39.37 90)
      (effects (font (size 1.27 1.27)))
    )
    (property "Value" "1uF" (at 151.13 41.91 90)
      (effects (font (size 1.27 1.27)))
    )
    (property "Footprint" "fab:C_1206" (at 151.13 46.99 0)
      (effects (font (size 1.27 1.27)) hide)
    )
    (property "Datasheet" "https://www.yageo.com/upload/media/product/productsearch/datasheet/mlcc/UPY-GP_NP0_16V-to-50V_18.pdf" (at 151.13 46.99 0)
      (effects (font (size 1.27 1.27)) hide)
    )
    (pin "1" (uuid 94ece7d6-4a70-44cd-9bd2-a63752a8a06c))
    (pin "2" (uuid d4823a0d-9f59-4f28-8d4f-fa5868e1208c))
    (instances
      (project "Demo_ExternalDAC_XIAO"
        (path "/55bea2ff-21ac-4276-9a5c-edbc15f06e97"
          (reference "C4") (unit 1)
        )
      )
    )
  )

  (symbol (lib_id "fab:PWR_5V") (at 48.26 35.56 0) (unit 1)
    (in_bom yes) (on_board yes) (dnp no) (fields_autoplaced)
    (uuid 78d15db3-acfd-47d4-b5d8-f737b76cc41e)
    (property "Reference" "#PWR012" (at 48.26 39.37 0)
      (effects (font (size 1.27 1.27)) hide)
    )
    (property "Value" "PWR_5V" (at 48.26 30.48 0)
      (effects (font (size 1.27 1.27)))
    )
    (property "Footprint" "" (at 48.26 35.56 0)
      (effects (font (size 1.27 1.27)) hide)
    )
    (property "Datasheet" "" (at 48.26 35.56 0)
      (effects (font (size 1.27 1.27)) hide)
    )
    (pin "1" (uuid 1610a52b-b744-4ce3-8a3e-50f50118c7da))
    (instances
      (project "Demo_ExternalDAC_XIAO"
        (path "/55bea2ff-21ac-4276-9a5c-edbc15f06e97"
          (reference "#PWR012") (unit 1)
        )
      )
    )
  )

  (symbol (lib_id "fab:C_1206") (at 198.12 64.77 90) (unit 1)
    (in_bom yes) (on_board yes) (dnp no) (fields_autoplaced)
    (uuid 80df6a9d-8806-4e0c-819d-783aeafdbdf4)
    (property "Reference" "C5" (at 198.12 57.15 90)
      (effects (font (size 1.27 1.27)))
    )
    (property "Value" "1uF" (at 198.12 59.69 90)
      (effects (font (size 1.27 1.27)))
    )
    (property "Footprint" "fab:C_1206" (at 198.12 64.77 0)
      (effects (font (size 1.27 1.27)) hide)
    )
    (property "Datasheet" "https://www.yageo.com/upload/media/product/productsearch/datasheet/mlcc/UPY-GP_NP0_16V-to-50V_18.pdf" (at 198.12 64.77 0)
      (effects (font (size 1.27 1.27)) hide)
    )
    (pin "1" (uuid 0d56f94c-335d-4517-8fb7-11e0ef554aee))
    (pin "2" (uuid 48ae383f-fc73-4789-a422-2d02d849e838))
    (instances
      (project "Demo_ExternalDAC_XIAO"
        (path "/55bea2ff-21ac-4276-9a5c-edbc15f06e97"
          (reference "C5") (unit 1)
        )
      )
    )
  )

  (symbol (lib_id "fab:PWR_FLAG") (at 48.26 83.82 90) (unit 1)
    (in_bom yes) (on_board yes) (dnp no) (fields_autoplaced)
    (uuid 81e1c418-b22e-43e0-b2c8-f77e9f57a46d)
    (property "Reference" "#FLG02" (at 48.26 83.82 0)
      (effects (font (size 1.27 1.27)) hide)
    )
    (property "Value" "PWR_FLAG" (at 44.45 83.82 90)
      (effects (font (size 1.27 1.27)) (justify left))
    )
    (property "Footprint" "" (at 48.26 83.82 0)
      (effects (font (size 1.27 1.27)) hide)
    )
    (property "Datasheet" "~" (at 48.26 83.82 0)
      (effects (font (size 1.27 1.27)) hide)
    )
    (pin "1" (uuid c74cad85-7af6-4af9-bfd4-8564230daf69))
    (instances
      (project "Demo_ExternalDAC_XIAO"
        (path "/55bea2ff-21ac-4276-9a5c-edbc15f06e97"
          (reference "#FLG02") (unit 1)
        )
      )
    )
  )

  (symbol (lib_id "fab:DAC_12bit_I2C_MCP4725_SOT-23-6") (at 72.39 163.83 0) (unit 1)
    (in_bom yes) (on_board yes) (dnp no)
    (uuid 82a8f84c-1e3c-4867-92be-b6eda4610228)
    (property "Reference" "U1" (at 82.55 165.1 0)
      (effects (font (size 1.27 1.27)))
    )
    (property "Value" "DAC_MCP4725" (at 87.63 167.64 0)
      (effects (font (size 1.27 1.27)))
    )
    (property "Footprint" "fab:SOT-23-6" (at 72.39 163.83 0)
      (effects (font (size 1.27 1.27)) hide)
    )
    (property "Datasheet" "www.adafruit.com/datasheets/mcp4725.pdf" (at 72.39 163.83 0)
      (effects (font (size 1.27 1.27)) hide)
    )
    (pin "1" (uuid a30d0edd-a301-4faa-9066-295839b16c27))
    (pin "3" (uuid 7238ac0f-fb53-49d5-85fd-c5c25a51e2cd))
    (pin "2" (uuid f7a9073b-8365-4694-8d8a-be173bfc0ec6))
    (pin "4" (uuid 1a2df82c-f97c-4322-8184-1f14dccdd46b))
    (pin "6" (uuid 09a7e6a4-5c29-4b13-969e-7de676d941f3))
    (pin "5" (uuid fd2f2622-9dac-46a5-ace8-04004de5fd78))
    (instances
      (project "Demo_ExternalDAC_XIAO"
        (path "/55bea2ff-21ac-4276-9a5c-edbc15f06e97"
          (reference "U1") (unit 1)
        )
      )
    )
  )

  (symbol (lib_id "fab:C_1206") (at 67.31 147.32 90) (unit 1)
    (in_bom yes) (on_board yes) (dnp no) (fields_autoplaced)
    (uuid 8bf73de0-2e68-420b-8e48-8d2c327088b5)
    (property "Reference" "C2" (at 67.31 139.7 90)
      (effects (font (size 1.27 1.27)))
    )
    (property "Value" "0.1uF" (at 67.31 142.24 90)
      (effects (font (size 1.27 1.27)))
    )
    (property "Footprint" "fab:C_1206" (at 67.31 147.32 0)
      (effects (font (size 1.27 1.27)) hide)
    )
    (property "Datasheet" "https://www.yageo.com/upload/media/product/productsearch/datasheet/mlcc/UPY-GP_NP0_16V-to-50V_18.pdf" (at 67.31 147.32 0)
      (effects (font (size 1.27 1.27)) hide)
    )
    (pin "2" (uuid 38c19197-1d38-4d27-8dbf-540808771dbd))
    (pin "1" (uuid ba3d2491-5421-419c-bad8-e90749c6b013))
    (instances
      (project "Demo_ExternalDAC_XIAO"
        (path "/55bea2ff-21ac-4276-9a5c-edbc15f06e97"
          (reference "C2") (unit 1)
        )
      )
    )
  )

  (symbol (lib_id "fab:Amplifier_Mono_LM4871M") (at 203.2 80.01 0) (unit 1)
    (in_bom yes) (on_board yes) (dnp no) (fields_autoplaced)
    (uuid 90350a79-b9f3-4575-a104-585e38b53bc3)
    (property "Reference" "U2" (at 205.3941 67.31 0)
      (effects (font (size 1.27 1.27)) (justify left))
    )
    (property "Value" "Amplifier_Mono_LM4871M" (at 205.3941 69.85 0)
      (effects (font (size 1.27 1.27)) (justify left))
    )
    (property "Footprint" "fab:SOIC-8_3.9x4.9mm_P1.27mm" (at 203.2 80.01 0)
      (effects (font (size 1.27 1.27)) hide)
    )
    (property "Datasheet" "https://www.ti.com/general/docs/suppproductinfo.tsp?distId=10&gotoUrl=https%3A%2F%2Fwww.ti.com%2Flit%2Fgpn%2Flm4871" (at 203.2 80.01 0)
      (effects (font (size 1.27 1.27)) hide)
    )
    (pin "8" (uuid 88c21324-3b29-4ff8-925f-dddeb7e099ac))
    (pin "1" (uuid 4c0f6005-fc4a-44e7-a702-303472290cc7))
    (pin "3" (uuid 05892fd8-cee6-4945-b8a9-ad2ee74eb9d5))
    (pin "5" (uuid 349bdc88-e8db-4d9c-a692-18274f5ace1d))
    (pin "2" (uuid a995bc9b-5944-4846-8f9f-52eaebc85e29))
    (pin "6" (uuid e794844f-fdef-460a-8419-4776da4561ff))
    (pin "4" (uuid bff7b83c-42c8-496a-a6c4-28a14ad65c66))
    (pin "7" (uuid 6888a22f-49c4-4a21-8178-a486c093b8a5))
    (instances
      (project "Demo_ExternalDAC_XIAO"
        (path "/55bea2ff-21ac-4276-9a5c-edbc15f06e97"
          (reference "U2") (unit 1)
        )
      )
    )
  )

  (symbol (lib_id "fab:PWR_FLAG") (at 48.26 39.37 270) (unit 1)
    (in_bom yes) (on_board yes) (dnp no) (fields_autoplaced)
    (uuid 958caee7-46e5-48a9-a2c4-3044e669b68c)
    (property "Reference" "#FLG03" (at 48.26 39.37 0)
      (effects (font (size 1.27 1.27)) hide)
    )
    (property "Value" "PWR_FLAG" (at 52.07 39.37 90)
      (effects (font (size 1.27 1.27)) (justify left))
    )
    (property "Footprint" "" (at 48.26 39.37 0)
      (effects (font (size 1.27 1.27)) hide)
    )
    (property "Datasheet" "~" (at 48.26 39.37 0)
      (effects (font (size 1.27 1.27)) hide)
    )
    (pin "1" (uuid a75792b9-15e9-4e56-965d-b03f2d143f2b))
    (instances
      (project "Demo_ExternalDAC_XIAO"
        (path "/55bea2ff-21ac-4276-9a5c-edbc15f06e97"
          (reference "#FLG03") (unit 1)
        )
      )
    )
  )

  (symbol (lib_id "fab:R_1206") (at 165.1 46.99 90) (unit 1)
    (in_bom yes) (on_board yes) (dnp no) (fields_autoplaced)
    (uuid 962599a2-ae3e-4569-b538-c3dbcdac2755)
    (property "Reference" "R3" (at 165.1 40.64 90)
      (effects (font (size 1.27 1.27)))
    )
    (property "Value" "10k" (at 165.1 43.18 90)
      (effects (font (size 1.27 1.27)))
    )
    (property "Footprint" "fab:R_1206" (at 165.1 46.99 90)
      (effects (font (size 1.27 1.27)) hide)
    )
    (property "Datasheet" "~" (at 165.1 46.99 0)
      (effects (font (size 1.27 1.27)) hide)
    )
    (pin "2" (uuid a40c62c8-a5b0-41cb-9edc-6aa608bfaabf))
    (pin "1" (uuid 72b53c55-1aaf-4472-9466-b9b21b28a910))
    (instances
      (project "Demo_ExternalDAC_XIAO"
        (path "/55bea2ff-21ac-4276-9a5c-edbc15f06e97"
          (reference "R3") (unit 1)
        )
      )
    )
  )

  (symbol (lib_id "fab:PWR_GND") (at 57.15 179.07 0) (unit 1)
    (in_bom yes) (on_board yes) (dnp no) (fields_autoplaced)
    (uuid 96d9306a-cae2-4193-9083-06d7f21b4722)
    (property "Reference" "#PWR05" (at 57.15 185.42 0)
      (effects (font (size 1.27 1.27)) hide)
    )
    (property "Value" "PWR_GND" (at 57.15 184.15 0)
      (effects (font (size 1.27 1.27)))
    )
    (property "Footprint" "" (at 57.15 179.07 0)
      (effects (font (size 1.27 1.27)) hide)
    )
    (property "Datasheet" "" (at 57.15 179.07 0)
      (effects (font (size 1.27 1.27)) hide)
    )
    (pin "1" (uuid 0ed5048f-234e-4c94-b4c0-c4d9dba31656))
    (instances
      (project "Demo_ExternalDAC_XIAO"
        (path "/55bea2ff-21ac-4276-9a5c-edbc15f06e97"
          (reference "#PWR05") (unit 1)
        )
      )
    )
  )

  (symbol (lib_id "fab:PWR_3V3") (at 43.18 143.51 0) (unit 1)
    (in_bom yes) (on_board yes) (dnp no) (fields_autoplaced)
    (uuid 9886d211-d673-4643-8d24-949d5c9e92e4)
    (property "Reference" "#PWR08" (at 43.18 147.32 0)
      (effects (font (size 1.27 1.27)) hide)
    )
    (property "Value" "PWR_3V3" (at 43.18 138.43 0)
      (effects (font (size 1.27 1.27)))
    )
    (property "Footprint" "" (at 43.18 143.51 0)
      (effects (font (size 1.27 1.27)) hide)
    )
    (property "Datasheet" "" (at 43.18 143.51 0)
      (effects (font (size 1.27 1.27)) hide)
    )
    (pin "1" (uuid 209692dc-8815-45f4-93e1-0f379a358c8b))
    (instances
      (project "Demo_ExternalDAC_XIAO"
        (path "/55bea2ff-21ac-4276-9a5c-edbc15f06e97"
          (reference "#PWR08") (unit 1)
        )
      )
    )
  )

  (symbol (lib_id "fab:PWR_3V3") (at 33.02 143.51 0) (unit 1)
    (in_bom yes) (on_board yes) (dnp no) (fields_autoplaced)
    (uuid a7aa47aa-6eff-413d-9c78-357e95c6ac74)
    (property "Reference" "#PWR07" (at 33.02 147.32 0)
      (effects (font (size 1.27 1.27)) hide)
    )
    (property "Value" "PWR_3V3" (at 33.02 138.43 0)
      (effects (font (size 1.27 1.27)))
    )
    (property "Footprint" "" (at 33.02 143.51 0)
      (effects (font (size 1.27 1.27)) hide)
    )
    (property "Datasheet" "" (at 33.02 143.51 0)
      (effects (font (size 1.27 1.27)) hide)
    )
    (pin "1" (uuid c70e74a4-7c9b-4bee-9613-aa8092fda853))
    (instances
      (project "Demo_ExternalDAC_XIAO"
        (path "/55bea2ff-21ac-4276-9a5c-edbc15f06e97"
          (reference "#PWR07") (unit 1)
        )
      )
    )
  )

  (symbol (lib_id "fab:R_1206") (at 33.02 156.21 0) (unit 1)
    (in_bom yes) (on_board yes) (dnp no) (fields_autoplaced)
    (uuid a7be8ab3-bf52-4c89-84e2-14eccbba9df7)
    (property "Reference" "R1" (at 35.56 154.94 0)
      (effects (font (size 1.27 1.27)) (justify left))
    )
    (property "Value" "4.9k" (at 35.56 157.48 0)
      (effects (font (size 1.27 1.27)) (justify left))
    )
    (property "Footprint" "fab:R_1206" (at 33.02 156.21 90)
      (effects (font (size 1.27 1.27)) hide)
    )
    (property "Datasheet" "~" (at 33.02 156.21 0)
      (effects (font (size 1.27 1.27)) hide)
    )
    (pin "1" (uuid ffff813d-9e82-496a-93eb-6e605faf3140))
    (pin "2" (uuid 00f5d7e8-8ee5-4859-9a25-1e3abb5a4116))
    (instances
      (project "Demo_ExternalDAC_XIAO"
        (path "/55bea2ff-21ac-4276-9a5c-edbc15f06e97"
          (reference "R1") (unit 1)
        )
      )
    )
  )

  (symbol (lib_id "fab:PWR_GND") (at 57.15 152.4 0) (unit 1)
    (in_bom yes) (on_board yes) (dnp no) (fields_autoplaced)
    (uuid b071f8d2-454e-4af9-a7f6-10d3d0d2bfba)
    (property "Reference" "#PWR06" (at 57.15 158.75 0)
      (effects (font (size 1.27 1.27)) hide)
    )
    (property "Value" "PWR_GND" (at 57.15 157.48 0)
      (effects (font (size 1.27 1.27)))
    )
    (property "Footprint" "" (at 57.15 152.4 0)
      (effects (font (size 1.27 1.27)) hide)
    )
    (property "Datasheet" "" (at 57.15 152.4 0)
      (effects (font (size 1.27 1.27)) hide)
    )
    (pin "1" (uuid 80bf9644-1792-41c4-94a4-5f849e575aec))
    (instances
      (project "Demo_ExternalDAC_XIAO"
        (path "/55bea2ff-21ac-4276-9a5c-edbc15f06e97"
          (reference "#PWR06") (unit 1)
        )
      )
    )
  )

  (symbol (lib_id "fab:C_1206") (at 67.31 134.62 90) (unit 1)
    (in_bom yes) (on_board yes) (dnp no) (fields_autoplaced)
    (uuid b1524609-731f-4057-b274-3e7dedf9fc96)
    (property "Reference" "C1" (at 67.31 127 90)
      (effects (font (size 1.27 1.27)))
    )
    (property "Value" "10uF" (at 67.31 129.54 90)
      (effects (font (size 1.27 1.27)))
    )
    (property "Footprint" "fab:C_1206" (at 67.31 134.62 0)
      (effects (font (size 1.27 1.27)) hide)
    )
    (property "Datasheet" "https://www.yageo.com/upload/media/product/productsearch/datasheet/mlcc/UPY-GP_NP0_16V-to-50V_18.pdf" (at 67.31 134.62 0)
      (effects (font (size 1.27 1.27)) hide)
    )
    (pin "2" (uuid 038584d6-eac4-46d5-a5f3-da4b89f54503))
    (pin "1" (uuid 878b5ae8-1928-4aa7-b7cc-8b3b8022c2e4))
    (instances
      (project "Demo_ExternalDAC_XIAO"
        (path "/55bea2ff-21ac-4276-9a5c-edbc15f06e97"
          (reference "C1") (unit 1)
        )
      )
    )
  )

  (symbol (lib_id "fab:PWR_GND") (at 146.05 83.82 0) (unit 1)
    (in_bom yes) (on_board yes) (dnp no) (fields_autoplaced)
    (uuid b1a46623-3ae2-485a-bf6f-39e03f9c4bf7)
    (property "Reference" "#PWR016" (at 146.05 90.17 0)
      (effects (font (size 1.27 1.27)) hide)
    )
    (property "Value" "PWR_GND" (at 146.05 88.9 0)
      (effects (font (size 1.27 1.27)))
    )
    (property "Footprint" "" (at 146.05 83.82 0)
      (effects (font (size 1.27 1.27)) hide)
    )
    (property "Datasheet" "" (at 146.05 83.82 0)
      (effects (font (size 1.27 1.27)) hide)
    )
    (pin "1" (uuid fea52ca2-f073-4693-9f35-7b9f5847e9e0))
    (instances
      (project "Demo_ExternalDAC_XIAO"
        (path "/55bea2ff-21ac-4276-9a5c-edbc15f06e97"
          (reference "#PWR016") (unit 1)
        )
      )
    )
  )

  (symbol (lib_id "fab:Screw_Terminal_01x02_P3.5mm") (at 228.6 78.74 0) (unit 1)
    (in_bom yes) (on_board yes) (dnp no) (fields_autoplaced)
    (uuid b212d450-fe06-41e6-9d2a-d82cf0d019ca)
    (property "Reference" "J2" (at 231.14 77.47 0)
      (effects (font (size 1.27 1.27)) (justify left))
    )
    (property "Value" "Screw_Terminal_01x02_P3.5mm" (at 231.14 80.01 0)
      (effects (font (size 1.27 1.27)) (justify left))
    )
    (property "Footprint" "fab:TerminalBlock_OnShore_1x02_P3.50mm_Horizontal" (at 228.6 78.74 0)
      (effects (font (size 1.27 1.27)) hide)
    )
    (property "Datasheet" "www.on-shore.com/wp-content/uploads/ED555XDS.pdf" (at 228.6 78.74 0)
      (effects (font (size 1.27 1.27)) hide)
    )
    (pin "1" (uuid fab368df-9c4d-4927-b55a-fe28d256d7d0))
    (pin "2" (uuid 9925015a-c8b6-499d-8965-c5fdbde3d341))
    (instances
      (project "Demo_ExternalDAC_XIAO"
        (path "/55bea2ff-21ac-4276-9a5c-edbc15f06e97"
          (reference "J2") (unit 1)
        )
      )
    )
  )

  (symbol (lib_id "fab:Module_XIAO-RP2040_SocketSMD") (at 48.26 62.23 0) (unit 1)
    (in_bom yes) (on_board yes) (dnp no) (fields_autoplaced)
    (uuid b24d263d-bfa2-438c-aa6e-e12e3aad72fd)
    (property "Reference" "M1" (at 59.69 60.96 0)
      (effects (font (size 1.27 1.27)) (justify left))
    )
    (property "Value" "XIAO-RP2040" (at 59.69 63.5 0)
      (effects (font (size 1.27 1.27)) (justify left))
    )
    (property "Footprint" "fab:SeeedStudio_XIAO_SocketSMD" (at 48.26 62.23 0)
      (effects (font (size 1.27 1.27)) hide)
    )
    (property "Datasheet" "https://wiki.seeedstudio.com/XIAO-RP2040/" (at 48.26 62.23 0)
      (effects (font (size 1.27 1.27)) hide)
    )
    (pin "4" (uuid 7335a12a-b313-447c-bc20-e65e8a7a6c9c))
    (pin "6" (uuid 513fc71f-d40a-4e91-8123-ad8b14c656f6))
    (pin "11" (uuid 04b42a35-fe82-44d0-9242-bd0b3fcc2a0d))
    (pin "5" (uuid 6df8cffb-99c5-4c37-b03e-2cc28fc2d209))
    (pin "7" (uuid 775ed046-f0d1-4d66-8496-bc76cb3f81f1))
    (pin "14" (uuid 00b08d45-9c7f-42a6-9083-3b72090b642d))
    (pin "13" (uuid 79287831-ce17-47d8-b425-213dec06b080))
    (pin "3" (uuid 22948845-77ba-49b8-bbc0-d5325216323c))
    (pin "2" (uuid e68b0c7f-e2b4-47f2-a859-2852ba2d6b14))
    (pin "1" (uuid c70e39fd-463d-4342-8f49-b88ec785aef9))
    (pin "8" (uuid 849e79d2-fdd1-47e8-9f99-45dfe0184235))
    (pin "12" (uuid abf0a3c4-7f1b-442b-8372-d210de852874))
    (pin "10" (uuid ee5e5776-0b59-41af-b870-58eb8dec5018))
    (pin "9" (uuid 1e3b898b-3674-4742-8e8d-e89fd5f75b17))
    (instances
      (project "Demo_ExternalDAC_XIAO"
        (path "/55bea2ff-21ac-4276-9a5c-edbc15f06e97"
          (reference "M1") (unit 1)
        )
      )
    )
  )

  (symbol (lib_id "fab:PWR_GND") (at 193.04 64.77 270) (unit 1)
    (in_bom yes) (on_board yes) (dnp no) (fields_autoplaced)
    (uuid c151a1da-b06d-4ea3-b43f-e630cf8d6424)
    (property "Reference" "#PWR014" (at 186.69 64.77 0)
      (effects (font (size 1.27 1.27)) hide)
    )
    (property "Value" "PWR_GND" (at 189.23 64.77 90)
      (effects (font (size 1.27 1.27)) (justify right))
    )
    (property "Footprint" "" (at 193.04 64.77 0)
      (effects (font (size 1.27 1.27)) hide)
    )
    (property "Datasheet" "" (at 193.04 64.77 0)
      (effects (font (size 1.27 1.27)) hide)
    )
    (pin "1" (uuid f38f855f-ee06-4099-ac1d-e88ba4640df6))
    (instances
      (project "Demo_ExternalDAC_XIAO"
        (path "/55bea2ff-21ac-4276-9a5c-edbc15f06e97"
          (reference "#PWR014") (unit 1)
        )
      )
    )
  )

  (symbol (lib_id "fab:R_POT_10K_Trimmer") (at 218.44 46.99 270) (unit 1)
    (in_bom yes) (on_board yes) (dnp no) (fields_autoplaced)
    (uuid c5016403-d41d-4d26-a8c3-e7c11a9ba5fd)
    (property "Reference" "RV2" (at 218.44 40.64 90)
      (effects (font (size 1.27 1.27)))
    )
    (property "Value" "R_POT_10K_Trimmer" (at 218.44 43.18 90)
      (effects (font (size 1.27 1.27)))
    )
    (property "Footprint" "fab:Potentiometer_TT_Model-23_4.5x5.0x3.0mm" (at 218.44 46.99 0)
      (effects (font (size 1.27 1.27)) hide)
    )
    (property "Datasheet" "https://www.ttelectronics.com/TTElectronics/media/ProductFiles/Trimmers/Datasheets/23.pdf" (at 218.44 46.99 0)
      (effects (font (size 1.27 1.27)) hide)
    )
    (pin "1" (uuid 63682bd2-8d48-4b8a-aae9-1b756daabb3e))
    (pin "2" (uuid 8e22cf4a-c4e0-4a56-bad1-4f4ab5a0a911))
    (pin "3" (uuid dc524140-c0af-4986-8c0e-40c7185c1b33))
    (instances
      (project "Demo_ExternalDAC_XIAO"
        (path "/55bea2ff-21ac-4276-9a5c-edbc15f06e97"
          (reference "RV2") (unit 1)
        )
      )
    )
  )

  (symbol (lib_id "fab:R_1206") (at 177.8 46.99 90) (unit 1)
    (in_bom yes) (on_board yes) (dnp no) (fields_autoplaced)
    (uuid cab7871b-219b-49f2-8083-5abb2d8c4aef)
    (property "Reference" "R4" (at 177.8 40.64 90)
      (effects (font (size 1.27 1.27)))
    )
    (property "Value" "10k" (at 177.8 43.18 90)
      (effects (font (size 1.27 1.27)))
    )
    (property "Footprint" "fab:R_1206" (at 177.8 46.99 90)
      (effects (font (size 1.27 1.27)) hide)
    )
    (property "Datasheet" "~" (at 177.8 46.99 0)
      (effects (font (size 1.27 1.27)) hide)
    )
    (pin "2" (uuid 2651e5ef-586a-4f17-9b71-40597379dd18))
    (pin "1" (uuid a2c95e96-2524-4812-b2f7-93019b29aa90))
    (instances
      (project "Demo_ExternalDAC_XIAO"
        (path "/55bea2ff-21ac-4276-9a5c-edbc15f06e97"
          (reference "R4") (unit 1)
        )
      )
    )
  )

  (symbol (lib_id "fab:PWR_3V3") (at 72.39 127 0) (unit 1)
    (in_bom yes) (on_board yes) (dnp no) (fields_autoplaced)
    (uuid de30a0fb-61e8-4aa3-b7bc-9b85d9bfdb90)
    (property "Reference" "#PWR02" (at 72.39 130.81 0)
      (effects (font (size 1.27 1.27)) hide)
    )
    (property "Value" "PWR_3V3" (at 72.39 121.92 0)
      (effects (font (size 1.27 1.27)))
    )
    (property "Footprint" "" (at 72.39 127 0)
      (effects (font (size 1.27 1.27)) hide)
    )
    (property "Datasheet" "" (at 72.39 127 0)
      (effects (font (size 1.27 1.27)) hide)
    )
    (pin "1" (uuid 33af4d8f-a359-4467-86aa-bd0968624c6e))
    (instances
      (project "Demo_ExternalDAC_XIAO"
        (path "/55bea2ff-21ac-4276-9a5c-edbc15f06e97"
          (reference "#PWR02") (unit 1)
        )
      )
    )
  )

  (symbol (lib_id "fab:PWR_5V") (at 167.64 57.15 0) (unit 1)
    (in_bom yes) (on_board yes) (dnp no) (fields_autoplaced)
    (uuid fbb35c37-8a76-4a46-80a9-221b71362ab6)
    (property "Reference" "#PWR015" (at 167.64 60.96 0)
      (effects (font (size 1.27 1.27)) hide)
    )
    (property "Value" "PWR_5V" (at 167.64 52.07 0)
      (effects (font (size 1.27 1.27)))
    )
    (property "Footprint" "" (at 167.64 57.15 0)
      (effects (font (size 1.27 1.27)) hide)
    )
    (property "Datasheet" "" (at 167.64 57.15 0)
      (effects (font (size 1.27 1.27)) hide)
    )
    (pin "1" (uuid 9ada98ab-18bf-47ef-a67a-dc9167cda1bf))
    (instances
      (project "Demo_ExternalDAC_XIAO"
        (path "/55bea2ff-21ac-4276-9a5c-edbc15f06e97"
          (reference "#PWR015") (unit 1)
        )
      )
    )
  )

  (symbol (lib_id "fab:PWR_GND") (at 72.39 179.07 0) (unit 1)
    (in_bom yes) (on_board yes) (dnp no) (fields_autoplaced)
    (uuid fe4d4712-9e8b-447c-80dd-13711fbdaab3)
    (property "Reference" "#PWR01" (at 72.39 185.42 0)
      (effects (font (size 1.27 1.27)) hide)
    )
    (property "Value" "PWR_GND" (at 72.39 184.15 0)
      (effects (font (size 1.27 1.27)))
    )
    (property "Footprint" "" (at 72.39 179.07 0)
      (effects (font (size 1.27 1.27)) hide)
    )
    (property "Datasheet" "" (at 72.39 179.07 0)
      (effects (font (size 1.27 1.27)) hide)
    )
    (pin "1" (uuid e56add28-7399-4b64-be6c-a20153ff4a4a))
    (instances
      (project "Demo_ExternalDAC_XIAO"
        (path "/55bea2ff-21ac-4276-9a5c-edbc15f06e97"
          (reference "#PWR01") (unit 1)
        )
      )
    )
  )

  (sheet_instances
    (path "/" (page "1"))
  )
)
